EBF 03
…
## Coleman am Beispiel der Klassengröße

<img src="media/coleman2.png" style="width: 90%"  />

---

## Diese Perspektive hilft uns zudem, vor einem ökologischen Fehlschluss:

> Bei einem ökologischen Fehlschluss wird auf Basis von Aggregatdaten (die Merkmale eines Kollektivs abbilden) unzulässigerweise auf Individualdaten geschlossen.

### Vorsicht bei der Interpretation, wenn keine Individualdaten  vorliegen:

```
## # A tibble: 33 x 4
##   country classsize Reading Mathscore
##   <chr>       <dbl>   <dbl>     <dbl>
## 1 AUS          26.8     503       494
## 2 AUT          24.2     485       497
## 3 BEL          21.0     499       507
## 4 CAN          26.5     527       516
## 5 CHE          21.2     492       521
## # ... with 28 more rows
```
…
